%YAML 1.1
%TAG !u! tag:unity3d.com,2011:
--- !u!78 &1
TagManager:
  serializedVersion: 2
  tags:
  - SkyboxCamera
  - Rocket
  - Edible
  - Mouth
  - Goal
  - Notification
  - PlayerHand
  - BackToStartingSceneTrigger
  - TutorialTrigger
  - FxTemporaire
  - Trail
  layers:
  - Default
  - TransparentFX
  - Ignore Raycast
  - 
  - Water
  - UI
  - 
  - 
  - MapView
  - RealView
  - VRGrab
  - DistanceGrab
  - 
  - 
  - 
  - 
  - 
  - 
  - 
  - 
  - 
  - 
  - 
  - 
  - 
  - 
  - 
  - 
  - 
  - 
  - 
  - 
  m_SortingLayers:
  - name: Default
    uniqueID: 0
    locked: 0
